e0:t,e1:f
e0:t,e1:t
e0:t,e1:f
e0:f,e1:t
e0:t,e1:t
e0:t,e1:t
e0:t,e1:t
e0:t,e1:t
e0:t,e1:f
e0:f,e1:t
e0:t,e1:f
e0:t,e1:t
e0:t,e1:f
e0:t,e1:t
e0:t,e1:f
e0:t,e1:f
e0:t,e1:t
e0:t,e1:t
e0:f,e1:f
e0:t,e1:f
e0:t,e1:f
e0:f,e1:f
e0:t,e1:t
e0:f,e1:f
e0:t,e1:f
e0:t,e1:f
e0:f,e1:t
e0:t,e1:t
e0:f,e1:f
e0:t,e1:t
e0:f,e1:t
e0:t,e1:t
e0:f,e1:f
e0:f,e1:t
e0:f,e1:t
e0:f,e1:t
e0:t,e1:f
e0:f,e1:t
e0:f,e1:f
e0:f,e1:t
e0:f,e1:t
e0:f,e1:t
e0:t,e1:t
e0:t,e1:t
e0:f,e1:t
e0:t,e1:f
e0:t,e1:t
e0:t,e1:f
e0:t,e1:f
e0:t,e1:f
e0:t,e1:t
e0:f,e1:f
e0:t,e1:t
e0:f,e1:t
e0:t,e1:t
e0:f,e1:t
e0:t,e1:t
e0:t,e1:f
e0:t,e1:t
e0:f,e1:t
e0:f,e1:t
e0:f,e1:t
e0:t,e1:f
e0:f,e1:t
e0:t,e1:f
e0:t,e1:f
e0:t,e1:f
e0:f,e1:t
e0:f,e1:f
e0:f,e1:f
e0:f,e1:f
e0:t,e1:f
e0:f,e1:f
e0:f,e1:f
e0:t,e1:f
e0:t,e1:f
e0:t,e1:f
e0:f,e1:f
e0:f,e1:t
e0:f,e1:t
e0:f,e1:f
e0:f,e1:f
e0:f,e1:t
e0:f,e1:f
e0:t,e1:f
e0:f,e1:t
e0:f,e1:f
e0:f,e1:t
e0:f,e1:t
e0:f,e1:t
e0:f,e1:f
e0:t,e1:t
e0:f,e1:f
e0:f,e1:t
e0:f,e1:t
e0:f,e1:t
e0:f,e1:f
e0:f,e1:f
e0:f,e1:t
e0:f,e1:f
