a1:f,a0:f
a1:f,a0:t
a1:t,a0:t
a1:t,a0:f
a1:f,a0:f
a1:f,a0:t
a1:f,a0:t
a1:t,a0:f
a1:f,a0:f
a1:t,a0:t
a1:t,a0:t
a1:f,a0:f
a1:t,a0:t
a1:f,a0:f
a1:f,a0:f
a1:f,a0:f
a1:t,a0:f
a1:t,a0:f
a1:f,a0:t
a1:f,a0:f
a1:f,a0:f
a1:f,a0:f
a1:f,a0:f
a1:t,a0:t
a1:t,a0:t
a1:f,a0:f
a1:f,a0:t
a1:t,a0:f
a1:t,a0:f
a1:f,a0:f
a1:t,a0:f
a1:t,a0:t
a1:t,a0:t
a1:f,a0:t
a1:f,a0:f
a1:f,a0:t
a1:f,a0:t
a1:f,a0:t
a1:f,a0:t
a1:f,a0:f
a1:f,a0:f
a1:t,a0:f
a1:f,a0:t
a1:f,a0:t
a1:f,a0:t
a1:t,a0:t
a1:t,a0:f
a1:f,a0:f
a1:t,a0:f
a1:t,a0:t
a1:t,a0:f
a1:f,a0:t
a1:t,a0:t
a1:f,a0:f
a1:t,a0:t
a1:f,a0:f
a1:f,a0:f
a1:f,a0:f
a1:t,a0:f
a1:t,a0:t
a1:f,a0:t
a1:f,a0:f
a1:t,a0:t
a1:t,a0:f
a1:f,a0:f
a1:t,a0:t
a1:t,a0:f
a1:f,a0:t
a1:t,a0:t
a1:f,a0:f
a1:t,a0:f
a1:t,a0:t
a1:t,a0:t
a1:f,a0:f
a1:t,a0:t
a1:t,a0:t
a1:t,a0:t
a1:f,a0:t
a1:t,a0:f
a1:t,a0:f
a1:f,a0:t
a1:t,a0:t
a1:f,a0:t
a1:f,a0:f
a1:f,a0:f
a1:t,a0:f
a1:t,a0:t
a1:f,a0:t
a1:f,a0:f
a1:t,a0:f
a1:f,a0:t
a1:f,a0:f
a1:t,a0:t
a1:t,a0:f
a1:t,a0:f
a1:t,a0:f
a1:f,a0:f
a1:f,a0:f
a1:t,a0:t
a1:f,a0:f
