d0:t,d1:t
d0:t,d1:t
d0:f,d1:t
d0:f,d1:t
d0:f,d1:t
d0:t,d1:f
d0:t,d1:t
d0:t,d1:f
d0:f,d1:f
d0:f,d1:t
d0:t,d1:f
d0:f,d1:f
d0:f,d1:t
d0:t,d1:f
d0:t,d1:f
d0:f,d1:t
d0:f,d1:t
d0:f,d1:f
d0:f,d1:f
d0:t,d1:f
d0:f,d1:f
d0:f,d1:f
d0:t,d1:t
d0:f,d1:t
d0:t,d1:f
d0:t,d1:f
d0:t,d1:t
d0:f,d1:t
d0:t,d1:f
d0:f,d1:f
d0:f,d1:t
d0:t,d1:f
d0:t,d1:t
d0:f,d1:f
d0:f,d1:t
d0:t,d1:t
d0:t,d1:f
d0:t,d1:f
d0:t,d1:f
d0:f,d1:t
d0:f,d1:f
d0:t,d1:t
d0:f,d1:f
d0:t,d1:f
d0:f,d1:t
d0:f,d1:f
d0:t,d1:t
d0:f,d1:f
d0:f,d1:f
d0:t,d1:t
d0:t,d1:t
d0:f,d1:t
d0:f,d1:t
d0:t,d1:f
d0:f,d1:f
d0:t,d1:f
d0:f,d1:t
d0:t,d1:f
d0:f,d1:f
d0:t,d1:t
d0:f,d1:t
d0:f,d1:f
d0:f,d1:t
d0:t,d1:t
d0:f,d1:t
d0:f,d1:t
d0:t,d1:t
d0:t,d1:f
d0:t,d1:f
d0:t,d1:f
d0:t,d1:t
d0:t,d1:f
d0:f,d1:t
d0:f,d1:t
d0:f,d1:t
d0:t,d1:t
d0:t,d1:f
d0:t,d1:t
d0:f,d1:f
d0:f,d1:t
d0:f,d1:f
d0:f,d1:f
d0:f,d1:t
d0:f,d1:f
d0:t,d1:t
d0:f,d1:f
d0:t,d1:f
d0:f,d1:f
d0:t,d1:t
d0:f,d1:f
d0:f,d1:t
d0:t,d1:f
d0:t,d1:t
d0:t,d1:t
d0:f,d1:f
d0:f,d1:f
d0:t,d1:t
d0:t,d1:t
d0:f,d1:t
d0:f,d1:t
