c0:t,c1:f
c0:t,c1:t
c0:t,c1:f
c0:f,c1:t
c0:f,c1:t
c0:f,c1:t
c0:f,c1:f
c0:t,c1:f
c0:t,c1:f
c0:t,c1:f
c0:t,c1:t
c0:t,c1:t
c0:t,c1:t
c0:t,c1:f
c0:f,c1:f
c0:f,c1:t
c0:t,c1:f
c0:f,c1:t
c0:f,c1:f
c0:t,c1:t
c0:f,c1:t
c0:f,c1:f
c0:f,c1:f
c0:f,c1:f
c0:t,c1:f
c0:t,c1:f
c0:f,c1:t
c0:f,c1:t
c0:f,c1:t
c0:t,c1:t
c0:f,c1:f
c0:f,c1:t
c0:f,c1:f
c0:t,c1:t
c0:f,c1:f
c0:f,c1:f
c0:t,c1:f
c0:t,c1:t
c0:t,c1:t
c0:t,c1:f
c0:t,c1:f
c0:f,c1:t
c0:t,c1:f
c0:f,c1:f
c0:f,c1:t
c0:f,c1:t
c0:f,c1:f
c0:f,c1:t
c0:f,c1:f
c0:t,c1:f
c0:t,c1:f
c0:t,c1:t
c0:f,c1:t
c0:f,c1:t
c0:t,c1:f
c0:f,c1:f
c0:f,c1:f
c0:t,c1:f
c0:f,c1:t
c0:t,c1:f
c0:f,c1:f
c0:f,c1:f
c0:t,c1:t
c0:t,c1:t
c0:t,c1:f
c0:f,c1:t
c0:t,c1:t
c0:f,c1:f
c0:f,c1:f
c0:f,c1:f
c0:t,c1:f
c0:f,c1:t
c0:f,c1:t
c0:f,c1:t
c0:f,c1:t
c0:t,c1:f
c0:t,c1:f
c0:t,c1:t
c0:f,c1:f
c0:t,c1:f
c0:f,c1:t
c0:t,c1:f
c0:f,c1:t
c0:t,c1:t
c0:f,c1:f
c0:f,c1:f
c0:f,c1:f
c0:t,c1:t
c0:t,c1:f
c0:f,c1:t
c0:f,c1:t
c0:t,c1:t
c0:f,c1:t
c0:t,c1:f
c0:f,c1:t
c0:t,c1:f
c0:f,c1:t
c0:t,c1:t
c0:f,c1:t
c0:f,c1:f
