g0:t,g1:t
g0:t,g1:f
g0:f,g1:t
g0:f,g1:f
g0:t,g1:f
g0:t,g1:f
g0:f,g1:t
g0:t,g1:f
g0:f,g1:t
g0:t,g1:f
g0:f,g1:f
g0:f,g1:f
g0:t,g1:t
g0:f,g1:t
g0:t,g1:f
g0:t,g1:f
g0:t,g1:f
g0:t,g1:t
g0:f,g1:t
g0:t,g1:t
g0:f,g1:t
g0:t,g1:t
g0:t,g1:t
g0:t,g1:f
g0:t,g1:f
g0:t,g1:f
g0:t,g1:f
g0:f,g1:f
g0:t,g1:t
g0:t,g1:f
g0:f,g1:t
g0:t,g1:f
g0:f,g1:f
g0:t,g1:t
g0:t,g1:t
g0:t,g1:f
g0:f,g1:f
g0:f,g1:t
g0:t,g1:f
g0:t,g1:f
g0:f,g1:f
g0:t,g1:t
g0:f,g1:f
g0:t,g1:t
g0:f,g1:f
g0:f,g1:t
g0:t,g1:t
g0:t,g1:t
g0:t,g1:t
g0:t,g1:f
g0:t,g1:f
g0:t,g1:t
g0:f,g1:t
g0:f,g1:f
g0:f,g1:f
g0:f,g1:t
g0:f,g1:f
g0:t,g1:f
g0:f,g1:t
g0:t,g1:t
g0:f,g1:f
g0:t,g1:t
g0:t,g1:f
g0:t,g1:t
g0:t,g1:t
g0:f,g1:f
g0:t,g1:t
g0:t,g1:t
g0:f,g1:f
g0:t,g1:f
g0:f,g1:f
g0:f,g1:f
g0:t,g1:t
g0:t,g1:t
g0:t,g1:t
g0:t,g1:t
g0:f,g1:f
g0:f,g1:t
g0:t,g1:t
g0:t,g1:t
g0:t,g1:t
g0:f,g1:f
g0:f,g1:f
g0:t,g1:f
g0:f,g1:f
g0:f,g1:t
g0:f,g1:f
g0:t,g1:t
g0:f,g1:t
g0:t,g1:f
g0:t,g1:f
g0:t,g1:t
g0:t,g1:t
g0:f,g1:f
g0:f,g1:f
g0:f,g1:f
g0:t,g1:f
g0:f,g1:t
g0:f,g1:f
g0:f,g1:t
