f0:f,f1:f
f0:t,f1:f
f0:f,f1:f
f0:t,f1:t
f0:t,f1:t
f0:t,f1:f
f0:f,f1:f
f0:f,f1:f
f0:t,f1:t
f0:f,f1:t
f0:f,f1:t
f0:f,f1:t
f0:f,f1:f
f0:f,f1:t
f0:f,f1:t
f0:f,f1:t
f0:f,f1:t
f0:t,f1:f
f0:t,f1:f
f0:f,f1:t
f0:t,f1:t
f0:f,f1:t
f0:t,f1:f
f0:f,f1:t
f0:f,f1:t
f0:t,f1:t
f0:t,f1:f
f0:f,f1:t
f0:t,f1:f
f0:t,f1:t
f0:f,f1:f
f0:f,f1:f
f0:f,f1:f
f0:f,f1:f
f0:f,f1:t
f0:t,f1:t
f0:t,f1:t
f0:f,f1:t
f0:f,f1:f
f0:t,f1:t
f0:t,f1:f
f0:t,f1:f
f0:f,f1:f
f0:f,f1:t
f0:f,f1:t
f0:t,f1:t
f0:t,f1:f
f0:f,f1:t
f0:f,f1:t
f0:t,f1:f
f0:f,f1:t
f0:f,f1:f
f0:t,f1:f
f0:f,f1:f
f0:t,f1:t
f0:f,f1:f
f0:t,f1:f
f0:t,f1:t
f0:t,f1:f
f0:t,f1:t
f0:f,f1:t
f0:t,f1:f
f0:t,f1:f
f0:t,f1:t
f0:t,f1:f
f0:f,f1:f
f0:f,f1:t
f0:t,f1:f
f0:t,f1:t
f0:f,f1:f
f0:t,f1:f
f0:t,f1:t
f0:t,f1:f
f0:f,f1:t
f0:f,f1:t
f0:t,f1:f
f0:f,f1:t
f0:f,f1:t
f0:t,f1:t
f0:f,f1:f
f0:f,f1:f
f0:t,f1:f
f0:t,f1:t
f0:f,f1:f
f0:t,f1:t
f0:f,f1:t
f0:t,f1:f
f0:f,f1:f
f0:f,f1:f
f0:f,f1:t
f0:t,f1:t
f0:f,f1:f
f0:f,f1:f
f0:f,f1:t
f0:t,f1:t
f0:f,f1:t
f0:f,f1:f
f0:t,f1:f
f0:f,f1:t
f0:f,f1:t
